{
    "name": "Property",
    "fields": [
        {
            "fieldName": "propertyName",
            "fieldType": "String"
        },
        {
            "fieldName": "filter",
            "fieldType": "Boolean"
        },
        {
            "fieldName": "image",
            "fieldType": "String"
        },
        {
            "fieldName": "variant",
            "fieldType": "Boolean"
        },
        {
            "fieldName": "propertyCount",
            "fieldType": "Integer"
        },
        {
            "fieldName": "propertyValue",
            "fieldType": "String"
        }
    ],
    "relationships": [
        {
            "relationshipType": "many-to-one",
            "otherEntityName": "product",
            "otherEntityRelationshipName": "property",
            "relationshipName": "products",
            "otherEntityField": "productName"
        },
        {
            "relationshipName": "product",
            "otherEntityName": "product",
            "relationshipType": "many-to-one",
            "otherEntityField": "id"
        }
    ],
    "changelogDate": "20191009055428",
    "entityTableName": "property",
    "dto": "no",
    "pagination": "no",
    "service": "no",
    "jpaMetamodelFiltering": false,
    "fluentMethods": true,
    "clientRootFolder": "",
    "applications": "*"
}