id;category_id;client_id;depth_level;category_name;category_image;record_status
1;mobile Fish;Home Loan Account Table Computer;5808;FTP Savings Account;deposit Tasty Metal Bacon Implementation;77
2;Officer;methodology Albania;43194;intangible;enable Gorgeous Frozen Pants;23277
3;Licensed Savings Account;Cambridgeshire Mississippi;4645;Credit Card Account Table Small Frozen Sausages;South Dakota envisioneer Music;23089
4;Monitored Bahamian Dollar Investment Account;Games Regional Digitized;66252;hardware Costa Rica Mayotte;Industrial;84228
5;Views e-enable Communications;National Awesome sky blue;4522;software scale interactive;Louisiana Specialist Home Loan Account;27599
6;scalable;Small;98688;index orange;Jewelery;19884
7;monitor 1080p Checking Account;world-class Frozen IB;62329;archive Fantastic Plastic Chicken;payment;59129
8;tangible Mississippi;Frozen bus;76078;Idaho compress Avon;system Small;43933
9;red;withdrawal knowledge base Buckinghamshire;90756;Phased;Saint Lucia white;94285
10;Money Market Account;Salad Web virtual;63340;RSS;mint green e-business EXE;32434
