id;product_name;vendor_company_id;vendor_name;client_id;vendor_id;product_id;status;unit_price;costprice;max_quantity;availablestock;sales_quantity;price_tag;product_vendor_id;product_category_id
1;Engineer Toys Fantastic;Licensed;Marketing mobile Cayman Islands Dollar;Computer Uzbekistan;input invoice calculate;Philippine Peso parsing Triple-buffered;deposit Rand Namibia Dollar;5159;94405;66991;3942;4416;Washington Officer New Hampshire;Product Music;card azure Frozen
2;Data Shoal;Refined Granite Gloves South Georgia and the South Sandwich Islands deposit;Money Market Account Organic;Cliff;Tugrik magnetic interface;Kansas;Maldives bluetooth policy;62589;52016;88597;42681;61586;Inverse Health JBOD;Outdoors;Holy See (Vatican City State)
3;Data Tasty Steel Pants Licensed Steel Shirt;Manor;Utah zero defect;bypass e-services;Russian Federation program;Practical;emulation SQL;71555;23360;58910;4209;27726;Principal;partnerships;whiteboard Concrete
4;Data open-source Generic;Facilitator XSS;Underpass Personal Loan Account;parse;Intuitive;quantifying Phased connecting;Automated;17652;38409;22048;3673;18643;neural wireless Generic Frozen Bike;Cambridgeshire Personal Loan Account Chile;syndicate
5;Buckinghamshire Liaison Forward;Pre-emptive Reduced;Kids Customer;Practical AI didactic;Tunnel;Configuration;Jewelery monitoring Infrastructure;73521;8698;28139;40845;25264;Computers Saint Helena Pound;Borders;Integration
6;Bond Markets Units European Composite Unit (EURCO);Facilitator;Cambridgeshire;Borders Internal;open-source Ouguiya;AGP circuit;optical deposit;85058;15734;86729;16040;70836;overriding UIC-Franc;Generic El Salvador Colon US Dollar purple;XSS RSS Outdoors
7;Music copying Reduced;Chair connecting synthesizing;Adaptive black;Money Market Account;New York Concrete expedite;Solomon Islands;Wooden radical Beauty;43224;96299;84012;34187;39215;Sausages bypass;Directives Baht Tasty Plastic Keyboard;bypass hard drive Hollow
8;Checking Account;SCSI;Technician Architect calculate;Auto Loan Account;Movies Sports;target;compress UAE Dirham Dam;27362;46853;99712;94430;42618;Terrace;Serbia;Guinea Franc fuchsia Licensed
9;Profound Plastic XSS;Chair mindshare Interactions;THX Coordinator;grid-enabled Specialist e-services;program override red;payment efficient RSS;Vietnam Mouse;20370;86862;9116;77659;15365;Summit Saint Martin Kids;Plastic Automotive Principal;indigo Manors
10;Rubber;Credit Card Account;architectures;Networked;Handcrafted Rubber Gloves;South Carolina;website Curve;1162;46459;7244;68045;39249;Walks Credit Card Account;payment;XSS solid state Handmade Granite Fish
