id;client_id;vendor_company_id;return_days_limit;property_count;description_count;product_category_id;vendor_id;tag_code;model_code;product_name;product_id;description;weight;unit;short_description;image_1;image_2;image_3;image_4;background_image;status
1;Glen Refined;Mandatory Assistant;1215;97790;96987;Incredible Fresh Car Tuvalu;Senior Optional Yemeni Rial;Central African Republic;magenta heuristic;Credit Card Account Maryland Legacy;Product;Brand Regional Court;62013;client-driven olive;facilitate Persevering;Fantastic;zero defect Ridges Beauty;groupware;Credit Card Account clear-thinking Frozen;parsing;models New Mexico District
2;Accountability;Aruba Chair portals;77760;81055;48037;Liaison engage navigate;Assistant generating;Practical Steel Shirt Plastic Movies;SMS;Zimbabwe parse Customer;input Accounts;enhance Multi-channelled purple;25144;mission-critical white SMTP;Checking Account global Steel;Borders Springs connecting;SAS;Planner Refined;engage Granite Grocery;bluetooth payment digital;Rubber Industrial seamless
3;withdrawal Jamaica;International;34825;54744;51398;solid state empower;Switzerland CFP Franc;Granite Configuration Buckinghamshire;Practical Steel Chips;Berkshire concept;Illinois robust;Granite Rubber;15190;Metal deposit;Rupiah;Human Mission;Officer Savings Account Automated;Pants even-keeled Chair;Brazil;Island cyan;Granite open architecture
4;Ergonomic Soft Shoes;Bulgarian Lev Cambridgeshire;15697;92087;37728;Home;primary quantify Chips;Guyana;Bedfordshire Auto Loan Account back-end;monitor Small Wooden Ball;feed;connecting generate Music;86721;back-end enhance;optimal;Chair Kentucky;blue internet solution Concrete;distributed Ranch impactful;Berkshire Awesome;pixel Pennsylvania;architectures Cotton
5;viral;payment Illinois dot-com;98651;33034;60577;Adaptive Intelligent Pants;Avon;blue scalable Car;bypassing Sleek Steel Shirt Rand Namibia Dollar;Fresh incubate Agent;Jewelery Engineer Bedfordshire;Tanzanian Shilling Assurance Nebraska;57161;stable override;Director;channels Buckinghamshire Open-source;pixel;asymmetric Montana Sausages;internet solution Checking Account;bleeding-edge Rubber;Yemen
6;open architecture;Gorgeous Metal Shoes;11669;59563;47316;Investment Account cross-platform;Configuration;parse infrastructures Mobility;Implementation Shirt Unbranded Soft Fish;Refined Soft Keyboard synthesizing;indigo Bacon Mouse;Programmable payment National;31619;Maryland Tanzanian Shilling Lights;e-enable Plaza intranet;convergence Idaho customized;synthesize Bahrain;Pre-emptive Bouvet Island (Bouvetoya) experiences;Credit Card Account;Belize Dollar Bacon;Investment Account Rwanda Customer
7;Liaison copy program;hack Electronics Oklahoma;76245;49398;87676;scalable connecting Fantastic;Creek Investment Account Buckinghamshire;Shoes Intuitive;synthesize Baby Credit Card Account;Portugal Persistent;hacking Interactions;Idaho strategize;46200;Communications;Customer;Avon;Advanced bus;Security Virginia;solid state Clothing deposit;Maine Checking Account markets;Unbranded programming District
8;Concrete;Pizza yellow programming;33214;86989;31144;Persistent Investment Account;Handmade Plastic Mouse neural;Money Market Account;synergize;JSON National;interactive capacitor;Idaho Grocery;91274;Devolved;Avon web-readiness;frame multi-byte modular;Electronics;Bedfordshire Strategist;Towels applications;Zimbabwe;Bedfordshire
9;application scale;indigo National;20513;46823;19068;Tools Street;Arkansas reciprocal;Mountain Malaysia supply-chains;Borders hack;Pants;Tasty navigate didactic;payment schemas Industrial;15615;bus withdrawal Toys;Enterprise-wide;Moldovan Leu;Checking Account;multi-byte Salad;Idaho bandwidth;Visionary pixel SAS;Markets Branding Concrete
10;eco-centric Senior;deposit;73590;20788;84812;Wooden;North Carolina infomediaries Chief;Money Market Account end-to-end navigating;Alaska solution-oriented;best-of-breed generate;applications context-sensitive;Consultant back-end Fresh;56577;Agent Squares;supply-chains;Bedfordshire;Peru withdrawal Down-sized;invoice;Liaison Tonga;Lari;Sports Global Soft
