id;property_name;filter;image;variant;property_count;property_value
1;backing up;false;relationships Philippine Peso;false;72609;Strategist
2;card Licensed Cotton Ball;false;bypass Ameliorated;false;96264;navigating
3;Som Rustic Frozen Keyboard ROI;false;Handmade Tuna;true;27993;Operations alarm
4;e-markets system;false;Louisiana;false;75784;Garden
5;Small;false;solution;true;70365;Bridge
6;connect;true;e-business Light;true;39850;Personal Loan Account
7;HTTP explicit;false;Optimization Cambridgeshire;true;65869;Soap Tasty Metal Sausages Outdoors
8;invoice multi-byte;true;North Carolina Granite;true;54561;Web revolutionize Branding
9;teal analyzing yellow;false;Ergonomic Rubber Chicken;false;7118;functionalities quantifying
10;wireless;false;Avon;true;69673;Personal Loan Account HTTP
